{
    "Version": "2012-10-17",
    "Statement": [
      {
        "Action": [
              "dynamodb:ListTables",
              "dynamodb:DeleteItem",
              "dynamodb:RestoreTableToPointInTime",
              "dynamodb:PurchaseReservedCapacityOfferings",
              "dynamodb:ListTagsOfResource",
              "dynamodb:UpdateGlobalTable",
              "dynamodb:CreateBackup",
              "dynamodb:DeleteTable",
              "dynamodb:UpdateContinuousBackups",
              "dynamodb:DescribeReservedCapacityOfferings",
              "dynamodb:DescribeTable",
              "dynamodb:GetItem",
              "dynamodb:DescribeContinuousBackups",
              "dynamodb:CreateGlobalTable",
              "dynamodb:DescribeLimits",
              "dynamodb:BatchGetItem",
              "dynamodb:UpdateTimeToLive",
              "dynamodb:BatchWriteItem",
              "dynamodb:ConditionCheckItem",
              "dynamodb:PutItem",
              "dynamodb:ListBackups",
              "dynamodb:Scan",
              "dynamodb:Query",
              "dynamodb:UpdateItem",
              "dynamodb:DescribeStream",
              "dynamodb:UpdateItem",
              "dynamodb:DescribeTimeToLive"
        ],
        "Resource": "*",
        "Effect": "Allow"
      }
    ]
  }